\relax 
\providecommand\hyper@newdestlabel[2]{}
\providecommand\HyperFirstAtBeginDocument{\AtBeginDocument}
\HyperFirstAtBeginDocument{\ifx\hyper@anchor\@undefined
\global\let\oldcontentsline\contentsline
\gdef\contentsline#1#2#3#4{\oldcontentsline{#1}{#2}{#3}}
\global\let\oldnewlabel\newlabel
\gdef\newlabel#1#2{\newlabelxx{#1}#2}
\gdef\newlabelxx#1#2#3#4#5#6{\oldnewlabel{#1}{{#2}{#3}}}
\AtEndDocument{\ifx\hyper@anchor\@undefined
\let\contentsline\oldcontentsline
\let\newlabel\oldnewlabel
\fi}
\fi}
\global\let\hyper@last\relax 
\gdef\HyperFirstAtBeginDocument#1{#1}
\providecommand*\HyPL@Entry[1]{}
\@nameuse{bbl@beforestart}
\catcode `:\active 
\catcode `;\active 
\catcode `!\active 
\catcode `?\active 
\HyPL@Entry{0<</P(1)>>}
\babel@aux{french}{}
\@writefile{nav}{\headcommand {\slideentry {0}{0}{1}{1/5}{}{0}}}
\@writefile{nav}{\headcommand {\beamer@framepages {1}{5}}}
\HyPL@Entry{5<</P(2)>>}
\@writefile{nav}{\headcommand {\slideentry {0}{0}{2}{6/9}{}{0}}}
\@writefile{nav}{\headcommand {\beamer@framepages {6}{9}}}
\HyPL@Entry{9<</P(3)>>}
\@writefile{nav}{\headcommand {\slideentry {0}{0}{3}{10/14}{}{0}}}
\@writefile{nav}{\headcommand {\beamer@framepages {10}{14}}}
\@writefile{nav}{\headcommand {\beamer@partpages {1}{14}}}
\@writefile{nav}{\headcommand {\beamer@subsectionpages {1}{14}}}
\@writefile{nav}{\headcommand {\beamer@sectionpages {1}{14}}}
\@writefile{nav}{\headcommand {\beamer@documentpages {14}}}
\@writefile{nav}{\headcommand {\gdef \inserttotalframenumber {3}}}
